^C:\USERS\MARIN\ONEDRIVE\DOCUMENTE\BITBUCKET\APD@\OPENCL\MATRIXMULTIPLICATION\SOURCE.CPP
C:\USERS\MARIN\ONEDRIVE\DOCUMENTE\BITBUCKET\APD@\OPENCL\MATRIXMULTIPLICATION\X64\DEBUG\VC142.PDB
C:\USERS\MARIN\ONEDRIVE\DOCUMENTE\BITBUCKET\APD@\OPENCL\MATRIXMULTIPLICATION\X64\DEBUG\VC142.IDB
C:\USERS\MARIN\ONEDRIVE\DOCUMENTE\BITBUCKET\APD@\OPENCL\MATRIXMULTIPLICATION\X64\DEBUG\SOURCE.OBJ
