^C:\USERS\MARIN\ONEDRIVE\DESKTOP\ALLFILES\APP\OPENCL\SOURCE.CPP
C:\USERS\MARIN\ONEDRIVE\DESKTOP\ALLFILES\APP\OPENCL\DEBUG\VC142.PDB
C:\USERS\MARIN\ONEDRIVE\DESKTOP\ALLFILES\APP\OPENCL\DEBUG\VC142.IDB
C:\USERS\MARIN\ONEDRIVE\DESKTOP\ALLFILES\APP\OPENCL\DEBUG\SOURCE.OBJ
